{
    "public": {
        "passStrored": "ACLAB",
        "api_host": "http://127.0.0.1:3000",
        "sqlhost": "inthaninautomation.com",
        "sqluser": "airquality",
        "sqlpassword": "A!rQual!ty",
        "sqldatabase": "airquality",
        "version": "0.0.1",
        "key": "MjZjNzI0MzM4NDY4OGMyZGU3Nzc1N2ViMmIyZGEyZDk="
    }
}